…
## `dag_greta()`

`dag_greta()` translates the probabilistic model encoded in a `causact_graph` object to the equivalent probabilistic program using functions from the `greta` package. If no additional arguments are provided, `dag_greta()` will return a data frame of 4,000 draws from the joint posterior distribution of all unobserved parameters.  The sampling method used is the NUTS sampler and is well-known for achieving representative results of moderately complex models with only a few thousand samples.   

Sampling from the posterior of the eight schools model (Figure \autoref{fig:eightSchools}) does not require a user to write PPL code, but rather a user will simply pass the generative DAG object to `dag_greta()` and then inspect the data frame of posterior draws:

```
R> library(greta) ## greta uses TensorFlow to get sample
R> drawsDF = graph %>% dag_greta()
R> drawsDF
```

```
# A tibble: 4,000 x 9
   avgEffect schoolEffect_Sc~ schoolEffect_Sc~ schoolEffect_Sc~
       <dbl>            <dbl>            <dbl>            <dbl>
 1     0.102            40.1              3.59            -4.51
 2     4.59             23.6              4.43           -26.3 
 3    -0.451            18.5             24.3             16.5 
 4    18.9               8.07           -26.3            -28.6 
 5    17.3              -5.83            -4.25           -26.2 
 6     1.97             42.7              2.25            12.6 
 7    12.7             -11.2              5.31           -16.5 
 8     9.11            -17.4              9.09           -12.7 
 9    -3.74             71.5              1.82            23.6 
10    -2.43             48.2            -13.3              2.89
# ... with 3,990 more rows, and 5 more variables:
#   schoolEffect_School4 <dbl>, schoolEffect_School5 <dbl>,
#   schoolEffect_School6 <dbl>, schoolEffect_School7 <dbl>,
#   schoolEffect_School8 <dbl>
```
…
